…
```r
life_history <- 
  life_history %>% 
  dplyr::rename(
          genus        = Genus,
          wean_mass    = `wean mass`,
          max_life     = `max. life`,
          litter_size  = `litter size`,
          litters_yr   = `litters/year`
          )
life_history
```

```
## # A tibble: 1,440 x 13
##    order family genus species   mass gestation newborn weaning wean_mass
##    <chr> <chr>  <chr> <chr>    <dbl>     <dbl>   <dbl>   <dbl>     <dbl>
##  1 Arti… Antil… Anti… americ… 4.54e4      8.13   3246.    3         8900
##  2 Arti… Bovid… Addax nasoma… 1.82e5      9.39   5480     6.5       -999
##  3 Arti… Bovid… Aepy… melamp… 4.15e4      6.35   5093     5.63     15900
##  4 Arti… Bovid… Alce… busela… 1.50e5      7.9   10167.    6.5       -999
##  5 Arti… Bovid… Ammo… clarkei 2.85e4      6.8    -999  -999         -999
##  6 Arti… Bovid… Ammo… lervia  5.55e4      5.08   3810     4         -999
##  7 Arti… Bovid… Anti… marsup… 3.00e4      5.72   3910     4.04      -999
##  8 Arti… Bovid… Anti… cervic… 3.75e4      5.5    3846     2.13      -999
##  9 Arti… Bovid… Bison bison   4.98e5      8.93  20000    10.7     157500
## 10 Arti… Bovid… Bison bonasus 5.00e5      9.14  23000.    6.6       -999
## # … with 1,430 more rows, and 4 more variables: AFR <dbl>, max_life <dbl>,
## #   litter_size <dbl>, litters_yr <dbl>
```
…
3. Are there any missing data (NA's) represented by different values? How much and where? In which variables do we have the most missing data? Can you think of a reason why so much data are missing in this variable?

```r
life_history_na <- 
  life_history %>% 
  na_if("-999")
life_history_na
```

```
## # A tibble: 1,440 x 13
##    order family genus species   mass gestation newborn weaning wean_mass
##    <chr> <chr>  <chr> <chr>    <dbl>     <dbl>   <dbl>   <dbl>     <dbl>
##  1 Arti… Antil… Anti… americ… 4.54e4      8.13   3246.    3         8900
##  2 Arti… Bovid… Addax nasoma… 1.82e5      9.39   5480     6.5         NA
##  3 Arti… Bovid… Aepy… melamp… 4.15e4      6.35   5093     5.63     15900
##  4 Arti… Bovid… Alce… busela… 1.50e5      7.9   10167.    6.5         NA
##  5 Arti… Bovid… Ammo… clarkei 2.85e4      6.8      NA    NA           NA
##  6 Arti… Bovid… Ammo… lervia  5.55e4      5.08   3810     4           NA
##  7 Arti… Bovid… Anti… marsup… 3.00e4      5.72   3910     4.04        NA
##  8 Arti… Bovid… Anti… cervic… 3.75e4      5.5    3846     2.13        NA
##  9 Arti… Bovid… Bison bison   4.98e5      8.93  20000    10.7     157500
## 10 Arti… Bovid… Bison bonasus 5.00e5      9.14  23000.    6.6         NA
## # … with 1,430 more rows, and 4 more variables: AFR <dbl>, max_life <dbl>,
## #   litter_size <dbl>, litters_yr <dbl>
```
It looks like wean_mass column has the most missing data. I think that this is because it's difficult to find the mass of the weaning mammal.

4. Compared to the `msleep` data, we have better representation among taxa. Produce a summary that shows the number of observations by taxonomic order.

```r
life_history_na %>% 
  group_by(order)
```

```
## # A tibble: 1,440 x 13
## # Groups:   order [17]
##    order family genus species   mass gestation newborn weaning wean_mass
##    <chr> <chr>  <chr> <chr>    <dbl>     <dbl>   <dbl>   <dbl>     <dbl>
##  1 Arti… Antil… Anti… americ… 4.54e4      8.13   3246.    3         8900
##  2 Arti… Bovid… Addax nasoma… 1.82e5      9.39   5480     6.5         NA
##  3 Arti… Bovid… Aepy… melamp… 4.15e4      6.35   5093     5.63     15900
##  4 Arti… Bovid… Alce… busela… 1.50e5      7.9   10167.    6.5         NA
##  5 Arti… Bovid… Ammo… clarkei 2.85e4      6.8      NA    NA           NA
##  6 Arti… Bovid… Ammo… lervia  5.55e4      5.08   3810     4           NA
##  7 Arti… Bovid… Anti… marsup… 3.00e4      5.72   3910     4.04        NA
##  8 Arti… Bovid… Anti… cervic… 3.75e4      5.5    3846     2.13        NA
##  9 Arti… Bovid… Bison bison   4.98e5      8.93  20000    10.7     157500
## 10 Arti… Bovid… Bison bonasus 5.00e5      9.14  23000.    6.6         NA
## # … with 1,430 more rows, and 4 more variables: AFR <dbl>, max_life <dbl>,
## #   litter_size <dbl>, litters_yr <dbl>
```
…
