…
7. The column `COSTT4_A` is the annual cost of each institution. Which city has the highest cost?

```r
colleges %>% 
  group_by(CITY) %>% 
  select(COSTT4_A) %>% 
  arrange(desc(COSTT4_A))
```

```
## Adding missing grouping variables: `CITY`
```

```
## # A tibble: 341 x 2
## # Groups:   CITY [161]
##    CITY          COSTT4_A
##    <chr>            <dbl>
##  1 Claremont        69355
##  2 Los Angeles      67225
##  3 Los Angeles      67064
##  4 Los Angeles      67046
##  5 Claremont        66325
##  6 Malibu           66152
##  7 Claremont        66060
##  8 Claremont        65880
##  9 San Francisco    65453
## 10 Claremont        64870
## # ... with 331 more rows
```
…
10. Use `separate()` to separate institution name into two new columns "UNIV" and "CAMPUS".

```r
colleges %>% 
  separate(INSTNM,into=c("UNIV", "CAMPUS"),sep="_" )
```

```
## Warning: Expected 2 pieces. Missing pieces filled with `NA` in 341 rows [1,
## 2, 3, 4, 5, 6, 7, 8, 9, 10, 11, 12, 13, 14, 15, 16, 17, 18, 19, 20, ...].
```

```
## # A tibble: 341 x 11
##    UNIV  CAMPUS CITY  STABBR ZIP   ADM_RATE SAT_AVG PCIP26 COSTT4_A
##    <chr> <chr>  <chr> <chr>  <chr>    <dbl>   <dbl>  <dbl>    <dbl>
##  1 Gros… <NA>   El C… CA     9202…       NA      NA 0.0016     7956
##  2 Coll… <NA>   Visa… CA     9327…       NA      NA 0.0066     8109
##  3 Coll… <NA>   San … CA     9440…       NA      NA 0.0038     8278
##  4 Vent… <NA>   Vent… CA     9300…       NA      NA 0.0035     8407
##  5 Oxna… <NA>   Oxna… CA     9303…       NA      NA 0.0085     8516
##  6 Moor… <NA>   Moor… CA     9302…       NA      NA 0.0151     8577
##  7 Skyl… <NA>   San … CA     9406…       NA      NA 0          8580
##  8 Glen… <NA>   Glen… CA     9120…       NA      NA 0.002      9181
##  9 Citr… <NA>   Glen… CA     9174…       NA      NA 0.0021     9281
## 10 Fres… <NA>   Fres… CA     93741       NA      NA 0.0324     9370
## # ... with 331 more rows, and 2 more variables: C150_4_POOLED <dbl>,
## #   PFTFTUG1_EF <dbl>
```
…
